<svg xmlns="http://www.w3.org/2000/svg" height="30" width="30" version="1.1">
 <path stroke-width=".019330" d="m14.256 29.994c-0.048 0-0.22181-0.016-0.38662-0.028-1.2044-0.083-2.5227-0.3518-3.7061-0.7558-1.1339-0.3871-2.2925-0.9483-3.2818-1.5896-2.3101-1.4974-4.1575-3.5746-5.3573-6.0238-1.3449-2.745-1.8153-5.8475-1.3484-8.8916 0.70425-4.5945 3.53-8.6202 7.6295-10.871 1.6574-0.90934 3.5115-1.5052 5.3865-1.7309 1.1952-0.1438 2.5779-0.1368 3.7695 0.019 1.611 0.2108 3.1858 0.6853 4.6393 1.3977 2.6501 1.2989 4.8659 3.3574 6.3699 5.9178 0.20791 0.3539 0.58252 1.0831 0.74483 1.4497 0.70603 1.5947 1.111 3.1955 1.2594 4.9773 0.033 0.4016 0.033 1.9047-0.0002 2.2809-0.1068 1.1994-0.29731 2.2086-0.61233 3.2439-0.54612 1.7951-1.4626 3.5268-2.6461 5.0002-0.64143 0.7986-1.5236 1.6807-2.3222 2.3221-1.4742 1.184-3.2044 2.0996-5.0004 2.646-0.99974 0.3041-1.9731 0.492-3.1087 0.6001-0.29761 0.028-1.796 0.055-2.0297 0.036zm-0.1228-7.2194c0.18511-0.056 0.37892-0.1757 0.52772-0.3255 0.17981-0.181 8.2625-12.099 8.3281-12.28 0.037-0.1013 0.043-0.1523 0.038-0.3072-0.01-0.1698-0.012-0.1986-0.079-0.333-0.052-0.1043-0.102-0.1727-0.17341-0.2349-0.16271-0.142-1.5158-1.0486-1.6348-1.0954-0.15531-0.061-0.43092-0.061-0.58742 0.0009-0.13981 0.055-0.28101 0.1657-0.37842 0.2968-0.042 0.056-1.5607 2.2936-3.3758 4.9727-1.8153 2.6791-3.3041 4.8749-3.3087 4.8797 0 0-0.72343-0.7048-1.5976-1.5769-1.481-1.4775-1.5976-1.5892-1.7097-1.6381-0.26121-0.1139-0.47802-0.1092-0.73023 0.016-0.12191 0.06-0.20021 0.1322-0.79493 0.73-0.37072 0.3726-0.68133 0.7011-0.70933 0.75-0.097004 0.17-0.13291 0.4079-0.089004 0.597 0.056002 0.2425-0.044002 0.1351 2.5493 2.7338 1.3349 1.3376 2.4837 2.4749 2.5528 2.5273 0.36992 0.2807 0.82564 0.3923 1.1722 0.2871z"/>
</svg>
